{
  "data": {
    "orders": [
      {
        "order_id": "1185",
        "created_at": "2024-07-05",
        "order_items": [
          {
            "product_name": "Hoodie with Logo",
            "order_item_id": "3438",
            "product_id": "24",
            "review_product_id": null,
            "review_added_at": null,
            "email_status": null
          },
          {
            "product_name": "Hoodie with Zipper",
            "order_item_id": "3439",
            "product_id": "31",
            "review_product_id": null,
            "review_added_at": null,
            "email_status": null
          }
        ]
      },
      {
        "order_id": "1184",
        "created_at": "2024-07-05",
        "order_items": [
          {
            "product_name": "Hoodie with Logo",
            "order_item_id": "3434",
            "product_id": "24",
            "review_product_id": null,
            "review_added_at": null,
            "email_status": null
          },
          {
            "product_name": "Hoodie with Zipper",
            "order_item_id": "3435",
            "product_id": "31",
            "review_product_id": null,
            "review_added_at": null,
            "email_status": null
          }
        ]
      },
      {
        "order_id": "1183",
        "created_at": "2024-07-05",
        "order_items": [
          {
            "product_name": "Hoodie with Logo",
            "order_item_id": "3430",
            "product_id": "24",
            "review_product_id": null,
            "review_added_at": null,
            "email_status": null
          },
          {
            "product_name": "Hoodie with Zipper",
            "order_item_id": "3431",
            "product_id": "31",
            "review_product_id": null,
            "review_added_at": null,
            "email_status": null
          }
        ]
      },
      {
        "order_id": "1182",
        "created_at": "2024-07-05",
        "order_items": [
          {
            "product_name": "Beanie with Logo",
            "order_item_id": "3425",
            "product_id": "43",
            "review_product_id": null,
            "review_added_at": null,
            "email_status": null
          },
          {
            "product_name": "Belt",
            "order_item_id": "3426",
            "product_id": "27",
            "review_product_id": null,
            "review_added_at": null,
            "email_status": null
          },
          {
            "product_name": "Cap",
            "order_item_id": "3427",
            "product_id": "28",
            "review_product_id": null,
            "review_added_at": null,
            "email_status": null
          }
        ]
      },
      {
        "order_id": "1180",
        "created_at": "2024-07-05",
        "order_items": [
          {
            "product_name": "Album",
            "order_item_id": "3421",
            "product_id": "34",
            "review_product_id": null,
            "review_added_at": null,
            "email_status": null
          },
          {
            "product_name": "Beanie with Logo",
            "order_item_id": "3422",
            "product_id": "43",
            "review_product_id": null,
            "review_added_at": null,
            "email_status": null
          }
        ]
      },
      {
        "order_id": "1179",
        "created_at": "2024-07-05",
        "order_items": [
          {
            "product_name": "Album",
            "order_item_id": "3417",
            "product_id": "34",
            "review_product_id": null,
            "review_added_at": null,
            "email_status": null
          },
          {
            "product_name": "Beanie with Logo",
            "order_item_id": "3418",
            "product_id": "43",
            "review_product_id": null,
            "review_added_at": null,
            "email_status": null
          }
        ]
      },
      {
        "order_id": "1178",
        "created_at": "2024-07-05",
        "order_items": [
          {
            "product_name": "Beanie with Logo",
            "order_item_id": "3414",
            "product_id": "43",
            "review_product_id": null,
            "review_added_at": null,
            "email_status": null
          }
        ]
      },
      {
        "order_id": "1177",
        "created_at": "2024-07-04",
        "order_items": [
          {
            "product_name": "Album",
            "order_item_id": "3410",
            "product_id": "489",
            "review_product_id": "489",
            "review_added_at": "2024-09-05 11:21:13",
            "email_status": null
          },
          {
            "product_name": "Album",
            "order_item_id": "3409",
            "product_id": "34",
            "review_product_id": null,
            "review_added_at": null,
            "email_status": null
          },
          {
            "product_name": "Beanie with Logo",
            "order_item_id": "3411",
            "product_id": "43",
            "review_product_id": null,
            "review_added_at": null,
            "email_status": null
          }
        ]
      },
      {
        "order_id": "1176",
        "created_at": "2024-07-04",
        "order_items": [
          {
            "product_name": "Album",
            "order_item_id": "3405",
            "product_id": "489",
            "review_product_id": "489",
            "review_added_at": "2024-09-05 11:21:13",
            "email_status": null
          },
          {
            "product_name": "Album",
            "order_item_id": "3404",
            "product_id": "34",
            "review_product_id": null,
            "review_added_at": null,
            "email_status": null
          },
          {
            "product_name": "Beanie with Logo",
            "order_item_id": "3406",
            "product_id": "43",
            "review_product_id": null,
            "review_added_at": null,
            "email_status": null
          }
        ]
      },
      {
        "order_id": "1175",
        "created_at": "2024-07-04",
        "order_items": [
          {
            "product_name": "Album",
            "order_item_id": "3400",
            "product_id": "489",
            "review_product_id": "489",
            "review_added_at": "2024-09-05 11:21:13",
            "email_status": null
          },
          {
            "product_name": "Album",
            "order_item_id": "3399",
            "product_id": "34",
            "review_product_id": null,
            "review_added_at": null,
            "email_status": null
          },
          {
            "product_name": "Beanie with Logo",
            "order_item_id": "3401",
            "product_id": "43",
            "review_product_id": null,
            "review_added_at": null,
            "email_status": null
          }
        ]
      },
      {
        "order_id": "1174",
        "created_at": "2024-07-04",
        "order_items": [
          {
            "product_name": "Album",
            "order_item_id": "3395",
            "product_id": "489",
            "review_product_id": "489",
            "review_added_at": "2024-09-05 11:21:13",
            "email_status": null
          },
          {
            "product_name": "Album",
            "order_item_id": "3394",
            "product_id": "34",
            "review_product_id": null,
            "review_added_at": null,
            "email_status": null
          },
          {
            "product_name": "Beanie with Logo",
            "order_item_id": "3396",
            "product_id": "43",
            "review_product_id": null,
            "review_added_at": null,
            "email_status": null
          }
        ]
      },
      {
        "order_id": "1173",
        "created_at": "2024-07-04",
        "order_items": [
          {
            "product_name": "Album",
            "order_item_id": "3390",
            "product_id": "489",
            "review_product_id": "489",
            "review_added_at": "2024-09-05 11:21:13",
            "email_status": null
          },
          {
            "product_name": "Album",
            "order_item_id": "3389",
            "product_id": "34",
            "review_product_id": null,
            "review_added_at": null,
            "email_status": null
          },
          {
            "product_name": "Beanie with Logo",
            "order_item_id": "3391",
            "product_id": "43",
            "review_product_id": null,
            "review_added_at": null,
            "email_status": null
          }
        ]
      },
      {
        "order_id": "1172",
        "created_at": "2024-07-04",
        "order_items": [
          {
            "product_name": "Album",
            "order_item_id": "3385",
            "product_id": "489",
            "review_product_id": "489",
            "review_added_at": "2024-09-05 11:21:13",
            "email_status": null
          },
          {
            "product_name": "Album",
            "order_item_id": "3384",
            "product_id": "34",
            "review_product_id": null,
            "review_added_at": null,
            "email_status": null
          },
          {
            "product_name": "Beanie with Logo",
            "order_item_id": "3386",
            "product_id": "43",
            "review_product_id": null,
            "review_added_at": null,
            "email_status": null
          }
        ]
      },
      {
        "order_id": "1171",
        "created_at": "2024-07-04",
        "order_items": [
          {
            "product_name": "Album",
            "order_item_id": "3380",
            "product_id": "489",
            "review_product_id": "489",
            "review_added_at": "2024-09-05 11:21:13",
            "email_status": null
          },
          {
            "product_name": "Album",
            "order_item_id": "3379",
            "product_id": "34",
            "review_product_id": null,
            "review_added_at": null,
            "email_status": null
          },
          {
            "product_name": "Beanie with Logo",
            "order_item_id": "3381",
            "product_id": "43",
            "review_product_id": null,
            "review_added_at": null,
            "email_status": null
          }
        ]
      },
      {
        "order_id": "1170",
        "created_at": "2024-07-04",
        "order_items": [
          {
            "product_name": "Album",
            "order_item_id": "3375",
            "product_id": "489",
            "review_product_id": "489",
            "review_added_at": "2024-09-05 11:21:13",
            "email_status": null
          },
          {
            "product_name": "Album",
            "order_item_id": "3374",
            "product_id": "34",
            "review_product_id": null,
            "review_added_at": null,
            "email_status": null
          },
          {
            "product_name": "Beanie with Logo",
            "order_item_id": "3376",
            "product_id": "43",
            "review_product_id": null,
            "review_added_at": null,
            "email_status": null
          }
        ]
      },
      {
        "order_id": "1169",
        "created_at": "2024-07-04",
        "order_items": [
          {
            "product_name": "Album",
            "order_item_id": "3370",
            "product_id": "489",
            "review_product_id": "489",
            "review_added_at": "2024-09-05 11:21:13",
            "email_status": null
          },
          {
            "product_name": "Album",
            "order_item_id": "3369",
            "product_id": "34",
            "review_product_id": null,
            "review_added_at": null,
            "email_status": null
          },
          {
            "product_name": "Beanie with Logo",
            "order_item_id": "3371",
            "product_id": "43",
            "review_product_id": null,
            "review_added_at": null,
            "email_status": null
          }
        ]
      },
      {
        "order_id": "1168",
        "created_at": "2024-07-04",
        "order_items": [
          {
            "product_name": "Album",
            "order_item_id": "3365",
            "product_id": "489",
            "review_product_id": "489",
            "review_added_at": "2024-09-05 11:21:13",
            "email_status": null
          },
          {
            "product_name": "Album",
            "order_item_id": "3364",
            "product_id": "34",
            "review_product_id": null,
            "review_added_at": null,
            "email_status": null
          },
          {
            "product_name": "Beanie with Logo",
            "order_item_id": "3366",
            "product_id": "43",
            "review_product_id": null,
            "review_added_at": null,
            "email_status": null
          }
        ]
      },
      {
        "order_id": "1167",
        "created_at": "2024-07-04",
        "order_items": [
          {
            "product_name": "Album",
            "order_item_id": "3360",
            "product_id": "489",
            "review_product_id": "489",
            "review_added_at": "2024-09-05 11:21:13",
            "email_status": null
          },
          {
            "product_name": "Album",
            "order_item_id": "3359",
            "product_id": "34",
            "review_product_id": null,
            "review_added_at": null,
            "email_status": null
          },
          {
            "product_name": "Beanie with Logo",
            "order_item_id": "3361",
            "product_id": "43",
            "review_product_id": null,
            "review_added_at": null,
            "email_status": null
          }
        ]
      },
      {
        "order_id": "1166",
        "created_at": "2024-07-04",
        "order_items": [
          {
            "product_name": "Album",
            "order_item_id": "3355",
            "product_id": "489",
            "review_product_id": "489",
            "review_added_at": "2024-09-05 11:21:13",
            "email_status": null
          },
          {
            "product_name": "Album",
            "order_item_id": "3354",
            "product_id": "34",
            "review_product_id": null,
            "review_added_at": null,
            "email_status": null
          },
          {
            "product_name": "Beanie with Logo",
            "order_item_id": "3356",
            "product_id": "43",
            "review_product_id": null,
            "review_added_at": null,
            "email_status": null
          }
        ]
      },
      {
        "order_id": "1165",
        "created_at": "2024-07-04",
        "order_items": [
          {
            "product_name": "Album",
            "order_item_id": "3350",
            "product_id": "489",
            "review_product_id": "489",
            "review_added_at": "2024-09-05 11:21:13",
            "email_status": null
          },
          {
            "product_name": "Album",
            "order_item_id": "3349",
            "product_id": "34",
            "review_product_id": null,
            "review_added_at": null,
            "email_status": null
          },
          {
            "product_name": "Beanie with Logo",
            "order_item_id": "3351",
            "product_id": "43",
            "review_product_id": null,
            "review_added_at": null,
            "email_status": null
          }
        ]
      },
      {
        "order_id": "1164",
        "created_at": "2024-07-04",
        "order_items": [
          {
            "product_name": "Album",
            "order_item_id": "3345",
            "product_id": "489",
            "review_product_id": "489",
            "review_added_at": "2024-09-05 11:21:13",
            "email_status": null
          },
          {
            "product_name": "Album",
            "order_item_id": "3344",
            "product_id": "34",
            "review_product_id": null,
            "review_added_at": null,
            "email_status": null
          },
          {
            "product_name": "Beanie with Logo",
            "order_item_id": "3346",
            "product_id": "43",
            "review_product_id": null,
            "review_added_at": null,
            "email_status": null
          }
        ]
      },
      {
        "order_id": "1160",
        "created_at": "2024-07-02",
        "order_items": [
          {
            "product_name": "Album",
            "order_item_id": "3339",
            "product_id": "489",
            "review_product_id": "489",
            "review_added_at": "2024-09-05 11:21:13",
            "email_status": null
          },
          {
            "product_name": "Beanie",
            "order_item_id": "3340",
            "product_id": "26",
            "review_product_id": null,
            "review_added_at": null,
            "email_status": null
          },
          {
            "product_name": "Album",
            "order_item_id": "3341",
            "product_id": "34",
            "review_product_id": null,
            "review_added_at": null,
            "email_status": null
          }
        ]
      },
      {
        "order_id": "1150",
        "created_at": "2024-06-28",
        "order_items": [
          {
            "product_name": "Belt",
            "order_item_id": "3334",
            "product_id": "27",
            "review_product_id": null,
            "review_added_at": null,
            "email_status": null
          },
          {
            "product_name": "Cap",
            "order_item_id": "3335",
            "product_id": "28",
            "review_product_id": null,
            "review_added_at": null,
            "email_status": null
          },
          {
            "product_name": "Hoodie with Logo",
            "order_item_id": "3336",
            "product_id": "24",
            "review_product_id": null,
            "review_added_at": null,
            "email_status": null
          }
        ]
      },
      {
        "order_id": "1145",
        "created_at": "2024-06-28",
        "order_items": [
          {
            "product_name": "Hoodie - Blue, Yes",
            "order_item_id": "3331",
            "product_id": "23",
            "review_product_id": null,
            "review_added_at": null,
            "email_status": null
          }
        ]
      },
      {
        "order_id": "1143",
        "created_at": "2024-06-28",
        "order_items": [
          {
            "product_name": "Hoodie - Green, No",
            "order_item_id": "3328",
            "product_id": "23",
            "review_product_id": null,
            "review_added_at": null,
            "email_status": null
          }
        ]
      },
      {
        "order_id": "1142",
        "created_at": "2024-06-28",
        "order_items": [
          {
            "product_name": "Hoodie - Blue, Yes",
            "order_item_id": "3325",
            "product_id": "23",
            "review_product_id": null,
            "review_added_at": null,
            "email_status": null
          }
        ]
      },
      {
        "order_id": "1141",
        "created_at": "2024-06-28",
        "order_items": [
          {
            "product_name": "Hoodie - Blue, Yes",
            "order_item_id": "3322",
            "product_id": "23",
            "review_product_id": null,
            "review_added_at": null,
            "email_status": null
          }
        ]
      },
      {
        "order_id": "1140",
        "created_at": "2024-06-28",
        "order_items": [
          {
            "product_name": "Hoodie - Blue, Yes",
            "order_item_id": "3319",
            "product_id": "23",
            "review_product_id": null,
            "review_added_at": null,
            "email_status": null
          }
        ]
      },
      {
        "order_id": "1138",
        "created_at": "2024-06-27",
        "order_items": [
          {
            "product_name": "Hoodie - Blue, Yes",
            "order_item_id": "3316",
            "product_id": "23",
            "review_product_id": null,
            "review_added_at": null,
            "email_status": null
          }
        ]
      },
      {
        "order_id": "1137",
        "created_at": "2024-06-27",
        "order_items": [
          {
            "product_name": "Hoodie - Green, No",
            "order_item_id": "3313",
            "product_id": "23",
            "review_product_id": null,
            "review_added_at": null,
            "email_status": null
          }
        ]
      }
    ],
    "total": "755",
    "per_page": 30,
    "total_pages": 26,
    "current_page": 5
  }
}